t,0,1,2,3
0.0,6.67e-06,6.67e-06,6.67e-06,6.67e-06
60.0100016669,6.66999966814e-06,6.6275598728e-06,6.66999923978e-06,6.61790073678e-06
120.020003334,6.669999336e-06,6.57292864218e-06,6.66999847894e-06,6.55658464876e-06
180.030005001,6.66999900387e-06,6.51574805058e-06,6.66999771809e-06,6.49407845827e-06
240.040006668,6.66999867173e-06,6.4577004313e-06,6.66999695724e-06,6.431512308e-06
299.949991665,6.66999834015e-06,6.39956843575e-06,6.66999619766e-06,6.36934187485e-06
359.959993332,6.66999800802e-06,6.34145042179e-06,6.66999543681e-06,6.30748105936e-06
419.969994999,6.66999767588e-06,6.28355320177e-06,6.66999467596e-06,6.24610569998e-06
479.979996666,6.66999734374e-06,6.22598894372e-06,6.66999391511e-06,6.18524848871e-06
539.989998333,6.66999647835e-06,6.16879655347e-06,6.66999255183e-06,6.12492289004e-06
600.0,6.66999532911e-06,6.11203156215e-06,6.66999086789e-06,6.06513560553e-06
660.010001667,6.66999513953e-06,6.05579761334e-06,6.66999075654e-06,6.0059327491e-06
720.020003334,6.66999495001e-06,6.00008391165e-06,6.66999064532e-06,5.94733673698e-06
780.030005001,6.66999476049e-06,5.94490142239e-06,6.66999053409e-06,5.8893479969e-06
840.040006668,6.66999457096e-06,5.89024626873e-06,6.66999042287e-06,5.83196259159e-06
899.949991665,6.66999438176e-06,5.83620392392e-06,6.66999031183e-06,5.77527027453e-06
959.959993332,6.66999419223e-06,5.78258874299e-06,6.66999020061e-06,5.71907748551e-06
1019.969995,6.66999400271e-06,5.72948854526e-06,6.66999008939e-06,5.66347522073e-06
1079.97999667,6.66999381319e-06,5.67689764582e-06,6.66998997817e-06,5.60845953772e-06
1139.98999833,6.66999372855e-06,5.62481191132e-06,6.66998999221e-06,5.55402653951e-06
1200.0,6.66999369974e-06,5.57322631006e-06,6.66999007294e-06,5.50017254544e-06
