id: 1ad72c80-b495-4425-9136-12b45a988fce
date-created: 2014/11/13 01:52:21
---
As5_ads_final: 7.51835159632e-06
P_dis_final: 2.54479892383e-06
Si_dis_final: 0.000994454014383
As3_dis_final: 3.16181560297e-06
P_ads_final: 9.43252010762e-05
Fe2_dis_final: 0.000183858066726
As3_ads_final: 2.33835694247e-06
Si_ads_final: 7.35459856167e-05
As5_dis_final: 3.2147585824e-07
O2_final: 0.00025
---
t,Fe2_ox,Fe2_dis,As3_tot,As3_ox,As5_tot,O2
0.0,0.0,0.0,6.67e-06,0.0,6.67e-06,0.00025
60.0100016669,1.79069996068e-06,5.00399384791e-05,6.61790073678e-06,5.20992632153e-08,6.72209926322e-06,0.00025
120.020003334,6.96242044174e-06,9.66988564377e-05,6.55658464876e-06,1.13415351242e-07,6.78341535124e-06,0.00025
180.030005001,1.53083760096e-05,0.00014018353931,6.49407845827e-06,1.75921541735e-07,6.84592154173e-06,0.00025
240.040006668,2.6620533056e-05,0.000180702020703,6.431512308e-06,2.38487692004e-07,6.908487692e-06,0.00025
299.949991665,4.06740182729e-05,0.000218392789528,6.36934187485e-06,3.00658125153e-07,6.97065812515e-06,0.00025
359.959993332,5.73225236349e-05,0.000253574922606,6.30748105936e-06,3.62518940638e-07,7.03251894064e-06,0.00025
419.969994999,7.63662274353e-05,0.000286361857245,6.24610569998e-06,4.23894300017e-07,7.09389430002e-06,0.00025
479.979996666,9.76403839544e-05,0.000316918339166,6.18524848871e-06,4.84751511294e-07,7.15475151129e-06,0.00025
539.989998333,0.000120993047347,0.000345396314213,6.12492289004e-06,5.4507710996e-07,7.21507710996e-06,0.00025
600.0,0.000146283000437,0.000371936999563,6.06513560553e-06,6.04864394468e-07,7.27486439447e-06,0.00025
660.010001667,0.000171579860098,0.000346640139902,6.0059327491e-06,6.640672509e-07,7.3340672509e-06,0.00025
720.020003334,0.00019517596598,0.00032304403402,5.94733673698e-06,7.22663263017e-07,7.39266326302e-06,0.00025
780.030005001,0.000217167986856,0.000301052013144,5.8893479969e-06,7.80652003105e-07,7.4506520031e-06,0.00025
840.040006668,0.000237657364438,0.000280562635562,5.83196259159e-06,8.38037408407e-07,7.50803740841e-06,0.00025
899.949991665,0.000256718060284,0.000261501939716,5.77527027453e-06,8.94729725472e-07,7.56472972547e-06,0.00025
959.959993332,0.000274510217545,0.000243709782455,5.71907748551e-06,9.50922514492e-07,7.62092251449e-06,0.00025
1019.969995,0.00029109064969,0.00022712935031,5.66347522073e-06,1.00652477927e-06,7.67652477927e-06,0.00025
1079.97999667,0.000306540964676,0.000211679035324,5.60845953772e-06,1.06154046228e-06,7.73154046228e-06,0.00025
1139.98999833,0.000320941019057,0.000197278980943,5.55402653951e-06,1.11597346049e-06,7.78597346049e-06,0.00025
1200.0,0.000334361933274,0.000183858066726,5.50017254544e-06,1.16982745456e-06,7.83982745456e-06,0.00025
